{
    "apiVersion": "v1",
    "kind": "Namespace",
    "metadata": {
        "annotations": {
            "openshift.io/description": "",
            "openshift.io/display-name": "",
            "openshift.io/requester": "user1",
            "openshift.io/sa.scc.mcs": "s0:c24,c9",
            "openshift.io/sa.scc.supplemental-groups": "1000570000/10000",
            "openshift.io/sa.scc.uid-range": "1000570000/10000"
        },
        "creationTimestamp": "2020-10-08T10:52:41Z",
        "deletionTimestamp": "2020-10-08T13:44:00Z",
        "managedFields": [
            {
                "apiVersion": "v1",
                "fieldsType": "FieldsV1",
                "fieldsV1": {
                    "f:metadata": {
                        "f:annotations": {
                            "f:openshift.io/sa.scc.mcs": {},
                            "f:openshift.io/sa.scc.supplemental-groups": {},
                            "f:openshift.io/sa.scc.uid-range": {}
                        }
                    }
                },
                "manager": "cluster-policy-controller",
                "operation": "Update",
                "time": "2020-10-08T10:52:41Z"
            },
            {
                "apiVersion": "v1",
                "fieldsType": "FieldsV1",
                "fieldsV1": {
                    "f:metadata": {
                        "f:annotations": {
                            ".": {},
                            "f:openshift.io/description": {},
                            "f:openshift.io/display-name": {},
                            "f:openshift.io/requester": {}
                        }
                    },
                    "f:status": {
                        "f:phase": {}
                    }
                },
                "manager": "openshift-apiserver",
                "operation": "Update",
                "time": "2020-10-08T10:52:41Z"
            },
            {
                "apiVersion": "v1",
                "fieldsType": "FieldsV1",
                "fieldsV1": {
                    "f:spec": {
                        "f:finalizers": {}
                    }
                },
                "manager": "openshift-controller-manager",
                "operation": "Update",
                "time": "2020-10-08T10:52:41Z"
            },
            {
                "apiVersion": "v1",
                "fieldsType": "FieldsV1",
                "fieldsV1": {
                    "f:status": {
                        "f:conditions": {
                            ".": {},
                            "k:{\"type\":\"NamespaceContentRemaining\"}": {
                                ".": {},
                                "f:lastTransitionTime": {},
                                "f:message": {},
                                "f:reason": {},
                                "f:status": {},
                                "f:type": {}
                            },
                            "k:{\"type\":\"NamespaceDeletionContentFailure\"}": {
                                ".": {},
                                "f:lastTransitionTime": {},
                                "f:message": {},
                                "f:reason": {},
                                "f:status": {},
                                "f:type": {}
                            },
                            "k:{\"type\":\"NamespaceDeletionDiscoveryFailure\"}": {
                                ".": {},
                                "f:lastTransitionTime": {},
                                "f:message": {},
                                "f:reason": {},
                                "f:status": {},
                                "f:type": {}
                            },
                            "k:{\"type\":\"NamespaceDeletionGroupVersionParsingFailure\"}": {
                                ".": {},
                                "f:lastTransitionTime": {},
                                "f:message": {},
                                "f:reason": {},
                                "f:status": {},
                                "f:type": {}
                            },
                            "k:{\"type\":\"NamespaceFinalizersRemaining\"}": {
                                ".": {},
                                "f:lastTransitionTime": {},
                                "f:message": {},
                                "f:reason": {},
                                "f:status": {},
                                "f:type": {}
                            }
                        }
                    }
                },
                "manager": "kube-controller-manager",
                "operation": "Update",
                "time": "2020-10-08T13:44:17Z"
            }
        ],
        "name": "gateway",
        "resourceVersion": "427252",
        "selfLink": "/api/v1/namespaces/gateway",
        "uid": "3d31b6af-86f3-4d95-af53-205e132c979c"
    },
    "spec": {
        "finalizers": [
        ]
    },
    "status": {
        "conditions": [
            {
                "lastTransitionTime": "2020-10-08T13:44:17Z",
                "message": "All resources successfully discovered",
                "reason": "ResourcesDiscovered",
                "status": "False",
                "type": "NamespaceDeletionDiscoveryFailure"
            },
            {
                "lastTransitionTime": "2020-10-08T13:44:17Z",
                "message": "All legacy kube types successfully parsed",
                "reason": "ParsedGroupVersions",
                "status": "False",
                "type": "NamespaceDeletionGroupVersionParsingFailure"
            },
            {
                "lastTransitionTime": "2020-10-08T13:44:17Z",
                "message": "All content successfully deleted, may be waiting on finalization",
                "reason": "ContentDeleted",
                "status": "False",
                "type": "NamespaceDeletionContentFailure"
            },
            {
                "lastTransitionTime": "2020-10-08T13:44:17Z",
                "message": "Some resources are remaining: keycloakrealms.keycloak.org has 1 resource instances",
                "reason": "SomeResourcesRemain",
                "status": "True",
                "type": "NamespaceContentRemaining"
            },
            {
                "lastTransitionTime": "2020-10-08T13:44:17Z",
                "message": "Some content in the namespace has finalizers remaining: realm.cleanup in 1 resource instances",
                "reason": "SomeFinalizersRemain",
                "status": "True",
                "type": "NamespaceFinalizersRemaining"
            }
        ],
        "phase": "Terminating"
    }
}
